HTTP/1.1 200 OK
Date: Mon, 01 Apr 2024 18:53:06 GMT
Server: WSGIServer/0.2 CPython/3.10.12
Content-Type: application/json
Vary: Accept, origin, Accept-Language, Cookie
Allow: GET, POST, HEAD, OPTIONS
djdt-store-id: 2195eecd9c264eedb7242607e02cee69
Server-Timing: TimerPanel_utime;dur=21.442999999999657;desc="User CPU time", TimerPanel_stime;dur=2.834000000000003;desc="System CPU time", TimerPanel_total;dur=24.27699999999966;desc="Total CPU time", TimerPanel_total_time;dur=21.046993002528325;desc="Elapsed time", SQLPanel_sql_time;dur=1.0053169971797615;desc="SQL 2 queries", CachePanel_total_time;dur=0;desc="Cache 0 Calls"
X-Frame-Options: DENY
Content-Length: 560
Content-Language: en
X-Content-Type-Options: nosniff
Referrer-Policy: same-origin
Cross-Origin-Opener-Policy: same-origin

{"count":4,"next":null,"previous":null,"results":[{"email":"admin@foodgram.zapto.org","id":3,"username":"admin","first_name":"Admin","last_name":"Admeenov","is_subscribed":false},{"email":"jam.serious@awesome.org","id":7,"username":"foodman","first_name":"Jam","last_name":"Serious","is_subscribed":false},{"email":"juicy.ham@gorgeous.org","id":8,"username":"yummy","first_name":"Juicy","last_name":"Ham","is_subscribed":false},{"email":"yule.neverknow@me.ir","id":9,"username":"fastingdude","first_name":"Yule","last_name":"Neverknow","is_subscribed":false}]}HTTP/1.1 200 OK
Date: Mon, 01 Apr 2024 18:54:39 GMT
Server: WSGIServer/0.2 CPython/3.10.12
Content-Type: application/json
Vary: Accept, origin, Accept-Language, Cookie
Allow: GET, POST
djdt-store-id: 632fe0e25b89412ca58e94d5cf82e008
Server-Timing: TimerPanel_utime;dur=31.933000000000433;desc="User CPU time", TimerPanel_stime;dur=0.0;desc="System CPU time", TimerPanel_total;dur=31.933000000000433;desc="Total CPU time", TimerPanel_total_time;dur=32.36824199848343;desc="Elapsed time", SQLPanel_sql_time;dur=2.5296240055467933;desc="SQL 8 queries", CachePanel_total_time;dur=0;desc="Cache 0 Calls"
X-Frame-Options: DENY
Content-Length: 6544
Content-Language: en
X-Content-Type-Options: nosniff
Referrer-Policy: same-origin
Cross-Origin-Opener-Policy: same-origin

{"count":9,"next":"http://127.0.0.1:8000/api/recipes/?page=2","previous":null,"results":[{"id":19,"tags":[{"id":3,"name":"dinner","color":"#c061cb","slug":"dinner"}],"author":{"email":"yule.neverknow@me.ir","id":9,"username":"fastingdude","first_name":"Yule","last_name":"Neverknow","is_subscribed":false},"ingredients":[{"id":1484,"name":"ром","measurement_unit":"бутылка","amount":1},{"id":817,"name":"лайм","measurement_unit":"г","amount":33}],"is_favorited":false,"is_in_shopping_cart":false,"name":"LetThemWaitLonger","image":"http://127.0.0.1:8000/media/recipes/splashing-lemonade-with-mint-lemons-table-isolated-black.resized.resized.jpg","text":"As always, cooking instructions go here with lots of humour and flavours.<br>The image is courtesy of <a href=\"https://www.freepik.com/free-photo/splashing-lemonade-with-mint-lemons-table-isolated-black_17246822.htm#page=2&query=mojito&position=18&from_view=search&track=sph&uuid=711a9c7e-bae7-4ff8-8d4c-a596b8e38e9a\">wirestock</a> on Freepik","cooking_time":5},{"id":12,"tags":[{"id":3,"name":"dinner","color":"#c061cb","slug":"dinner"}],"author":{"email":"admin@foodgram.zapto.org","id":3,"username":"admin","first_name":"Admin","last_name":"Admeenov","is_subscribed":false},"ingredients":[{"id":1363,"name":"приправа 4 перца","measurement_unit":"г","amount":221},{"id":1574,"name":"свиная грудинка","measurement_unit":"г","amount":500},{"id":228,"name":"вино красное","measurement_unit":"г","amount":500}],"is_favorited":false,"is_in_shopping_cart":false,"name":"MeatBalls4eva","image":"http://127.0.0.1:8000/media/recipes/vertical-shot-delicious-vegetable-meatballs-with-creamy-sauce.resized.jpg","text":"Insert the cooking instructions here with lots of humour and flavours.<br>The image is courtesy of <a href=\"https://www.freepik.com/free-photo/vertical-shot-delicious-vegetable-meatballs-with-creamy-sauce_13005371.htm#query=meatballs&position=12&from_view=search&track=sph&uuid=d24962d4-c193-4cbb-b665-f9f49660300c\">wirestock</a> on Freepik","cooking_time":123},{"id":5,"tags":[{"id":2,"name":"lunch","color":"#33d17a","slug":"lunch"}],"author":{"email":"jam.serious@awesome.org","id":7,"username":"foodman","first_name":"Jam","last_name":"Serious","is_subscribed":false},"ingredients":[{"id":1740,"name":"суповой набор","measurement_unit":"г","amount":200},{"id":1568,"name":"свекла","measurement_unit":"г","amount":305},{"id":139,"name":"ботарга","measurement_unit":"г","amount":22}],"is_favorited":false,"is_in_shopping_cart":false,"name":"MyNewLunch","image":"http://127.0.0.1:8000/media/recipes/lunch.resized.jpg","text":"Cooking instructions go here with lots of humour and flavours.<br>The image is courtesy of <a href=\"https://www.freepik.com/free-photo/traditional-ukrainian-borscht-with-slices-brown-bread-soft-drink_7802145.htm#query=lunch&position=15&from_view=search&track=sph&uuid=dbcc9afb-5514-414a-92d8-94637a7ed762\">KamranAydinov</a> on Freepik","cooking_time":111},{"id":6,"tags":[{"id":1,"name":"breakfast","color":"#f08080","slug":"breakfast"}],"author":{"email":"yule.neverknow@me.ir","id":9,"username":"fastingdude","first_name":"Yule","last_name":"Neverknow","is_subscribed":false},"ingredients":[{"id":1232,"name":"пеперончино","measurement_unit":"ч. л.","amount":9},{"id":515,"name":"каннеллони","measurement_unit":"г","amount":22},{"id":884,"name":"лук-порей","measurement_unit":"горсть","amount":23},{"id":2182,"name":"яйца куриные","measurement_unit":"г","amount":150}],"is_favorited":false,"is_in_shopping_cart":false,"name":"MyOldBreakfast4U","image":"http://127.0.0.1:8000/media/recipes/breakfast.resized.jpg","text":"The ingredients are in Russian for testing purposes.<br>Cooking instructions follow with lots of humour and flavours.<br>The image is courtesy of <a href=\"https://www.freepik.com/free-photo/fried-egg-laying-toast-topped-with-pepper-seeds-with-carrots-spring-onions_7676510.htm#query=breakfast&position=2&from_view=search&track=sph&uuid=512b451f-5c7f-4208-bb76-afa210f7eddd\">jcomp</a> on Freepik","cooking_time":10},{"id":7,"tags":[{"id":2,"name":"lunch","color":"#33d17a","slug":"lunch"},{"id":3,"name":"dinner","color":"#c061cb","slug":"dinner"}],"author":{"email":"juicy.ham@gorgeous.org","id":8,"username":"yummy","first_name":"Juicy","last_name":"Ham","is_subscribed":false},"ingredients":[{"id":253,"name":"вода минеральная без газа","measurement_unit":"стакан","amount":3},{"id":1054,"name":"морковь вареная","measurement_unit":"г","amount":22},{"id":530,"name":"капуста пекинская","measurement_unit":"г","amount":33},{"id":493,"name":"кабачки молодые","measurement_unit":"г","amount":344},{"id":1569,"name":"свекла вареная","measurement_unit":"г","amount":350},{"id":1501,"name":"рыба морская","measurement_unit":"г","amount":500}],"is_favorited":false,"is_in_shopping_cart":false,"name":"MyYummyDinner","image":"http://127.0.0.1:8000/media/recipes/dinner.resized.jpg","text":"Cooking instructions go here with lots of humour and flavours.<br>The image is courtesy of <a href=\"https://www.freepik.com/free-photo/top-view-tasty-cooked-fish-with-fresh-vegetables-seasonings-dark-table_17187519.htm#query=dinner&position=17&from_view=search&track=sph&uuid=2e4eb165-c827-4ff8-a285-020f6720e9f5\">KamranAydinov</a> on Freepik","cooking_time":150},{"id":8,"tags":[{"id":1,"name":"breakfast","color":"#f08080","slug":"breakfast"},{"id":2,"name":"lunch","color":"#33d17a","slug":"lunch"}],"author":{"email":"jam.serious@awesome.org","id":7,"username":"foodman","first_name":"Jam","last_name":"Serious","is_subscribed":false},"ingredients":[{"id":811,"name":"лаваш","measurement_unit":"по вкусу","amount":2},{"id":1915,"name":"фарш (баранина и говядина)","measurement_unit":"г","amount":340},{"id":1894,"name":"укроп свежий","measurement_unit":"г","amount":22}],"is_favorited":false,"is_in_shopping_cart":false,"name":"BrunchToGo","image":"http://127.0.0.1:8000/media/recipes/brunch.resized.jpg","text":"Cooking instructions go here with lots of humour and flavours.<br>The image is courtesy of <a href=\"https://www.freepik.com/free-photo/arabic-shaurma-with-sauce-wooden-board_5588054.htm#query=brunch&position=29&from_view=search&track=sph&uuid=b0943bd3-eaf4-4413-9e12-f2f21c423dfc\">azerbaijan_stockers</a> on Freepik","cooking_time":120}]}HTTP/1.1 200 OK
Date: Mon, 01 Apr 2024 18:59:33 GMT
Server: WSGIServer/0.2 CPython/3.10.12
Content-Type: application/json
Vary: Accept, origin, Accept-Language, Cookie
Allow: GET, POST
djdt-store-id: 3b919cca13a34a8d88fee998dc55e20f
Server-Timing: TimerPanel_utime;dur=36.26599999999769;desc="User CPU time", TimerPanel_stime;dur=0.07800000000024454;desc="System CPU time", TimerPanel_total;dur=36.34399999999793;desc="Total CPU time", TimerPanel_total_time;dur=36.34459499880904;desc="Elapsed time", SQLPanel_sql_time;dur=2.4825940199662;desc="SQL 8 queries", CachePanel_total_time;dur=0;desc="Cache 0 Calls"
X-Frame-Options: DENY
Content-Length: 6542
Content-Language: en
X-Content-Type-Options: nosniff
Referrer-Policy: same-origin
Cross-Origin-Opener-Policy: same-origin

{"count":9,"next":"http://127.0.0.1:8000/api/recipes/?page=2","previous":null,"results":[{"id":19,"tags":[{"id":3,"name":"dinner","color":"#c061cb","slug":"dinner"}],"author":{"email":"yule.neverknow@me.ir","id":9,"username":"fastingdude","first_name":"Yule","last_name":"Neverknow","is_subscribed":false},"ingredients":[{"id":1484,"name":"ром","measurement_unit":"бутылка","amount":1},{"id":817,"name":"лайм","measurement_unit":"г","amount":33}],"is_favorited":false,"is_in_shopping_cart":false,"name":"LetThemWaitLonger","image":"http://127.0.0.1:8000/media/recipes/splashing-lemonade-with-mint-lemons-table-isolated-black.resized.resized.jpg","text":"As always, cooking instructions go here with lots of humour and flavours.<br>The image is courtesy of <a href=\"https://www.freepik.com/free-photo/splashing-lemonade-with-mint-lemons-table-isolated-black_17246822.htm#page=2&query=mojito&position=18&from_view=search&track=sph&uuid=711a9c7e-bae7-4ff8-8d4c-a596b8e38e9a\">wirestock</a> on Freepik","cooking_time":5},{"id":12,"tags":[{"id":3,"name":"dinner","color":"#c061cb","slug":"dinner"}],"author":{"email":"admin@foodgram.zapto.org","id":3,"username":"admin","first_name":"Admin","last_name":"Admeenov","is_subscribed":false},"ingredients":[{"id":1363,"name":"приправа 4 перца","measurement_unit":"г","amount":221},{"id":1574,"name":"свиная грудинка","measurement_unit":"г","amount":500},{"id":228,"name":"вино красное","measurement_unit":"г","amount":500}],"is_favorited":false,"is_in_shopping_cart":false,"name":"MeatBalls4eva","image":"http://127.0.0.1:8000/media/recipes/vertical-shot-delicious-vegetable-meatballs-with-creamy-sauce.resized.jpg","text":"Insert the cooking instructions here with lots of humour and flavours.<br>The image is courtesy of <a href='https://www.freepik.com/free-photo/vertical-shot-delicious-vegetable-meatballs-with-creamy-sauce_13005371.htm#query=meatballs&position=12&from_view=search&track=sph&uuid=d24962d4-c193-4cbb-b665-f9f49660300c'>wirestock</a> on Freepik","cooking_time":123},{"id":5,"tags":[{"id":2,"name":"lunch","color":"#33d17a","slug":"lunch"}],"author":{"email":"jam.serious@awesome.org","id":7,"username":"foodman","first_name":"Jam","last_name":"Serious","is_subscribed":false},"ingredients":[{"id":1740,"name":"суповой набор","measurement_unit":"г","amount":200},{"id":1568,"name":"свекла","measurement_unit":"г","amount":305},{"id":139,"name":"ботарга","measurement_unit":"г","amount":22}],"is_favorited":false,"is_in_shopping_cart":false,"name":"MyNewLunch","image":"http://127.0.0.1:8000/media/recipes/lunch.resized.jpg","text":"Cooking instructions go here with lots of humour and flavours.<br>The image is courtesy of <a href=\"https://www.freepik.com/free-photo/traditional-ukrainian-borscht-with-slices-brown-bread-soft-drink_7802145.htm#query=lunch&position=15&from_view=search&track=sph&uuid=dbcc9afb-5514-414a-92d8-94637a7ed762\">KamranAydinov</a> on Freepik","cooking_time":111},{"id":6,"tags":[{"id":1,"name":"breakfast","color":"#f08080","slug":"breakfast"}],"author":{"email":"yule.neverknow@me.ir","id":9,"username":"fastingdude","first_name":"Yule","last_name":"Neverknow","is_subscribed":false},"ingredients":[{"id":1232,"name":"пеперончино","measurement_unit":"ч. л.","amount":9},{"id":515,"name":"каннеллони","measurement_unit":"г","amount":22},{"id":884,"name":"лук-порей","measurement_unit":"горсть","amount":23},{"id":2182,"name":"яйца куриные","measurement_unit":"г","amount":150}],"is_favorited":false,"is_in_shopping_cart":false,"name":"MyOldBreakfast4U","image":"http://127.0.0.1:8000/media/recipes/breakfast.resized.jpg","text":"The ingredients are in Russian for testing purposes.<br>Cooking instructions follow with lots of humour and flavours.<br>The image is courtesy of <a href=\"https://www.freepik.com/free-photo/fried-egg-laying-toast-topped-with-pepper-seeds-with-carrots-spring-onions_7676510.htm#query=breakfast&position=2&from_view=search&track=sph&uuid=512b451f-5c7f-4208-bb76-afa210f7eddd\">jcomp</a> on Freepik","cooking_time":10},{"id":7,"tags":[{"id":2,"name":"lunch","color":"#33d17a","slug":"lunch"},{"id":3,"name":"dinner","color":"#c061cb","slug":"dinner"}],"author":{"email":"juicy.ham@gorgeous.org","id":8,"username":"yummy","first_name":"Juicy","last_name":"Ham","is_subscribed":false},"ingredients":[{"id":253,"name":"вода минеральная без газа","measurement_unit":"стакан","amount":3},{"id":1054,"name":"морковь вареная","measurement_unit":"г","amount":22},{"id":530,"name":"капуста пекинская","measurement_unit":"г","amount":33},{"id":493,"name":"кабачки молодые","measurement_unit":"г","amount":344},{"id":1569,"name":"свекла вареная","measurement_unit":"г","amount":350},{"id":1501,"name":"рыба морская","measurement_unit":"г","amount":500}],"is_favorited":false,"is_in_shopping_cart":false,"name":"MyYummyDinner","image":"http://127.0.0.1:8000/media/recipes/dinner.resized.jpg","text":"Cooking instructions go here with lots of humour and flavours.<br>The image is courtesy of <a href=\"https://www.freepik.com/free-photo/top-view-tasty-cooked-fish-with-fresh-vegetables-seasonings-dark-table_17187519.htm#query=dinner&position=17&from_view=search&track=sph&uuid=2e4eb165-c827-4ff8-a285-020f6720e9f5\">KamranAydinov</a> on Freepik","cooking_time":150},{"id":8,"tags":[{"id":1,"name":"breakfast","color":"#f08080","slug":"breakfast"},{"id":2,"name":"lunch","color":"#33d17a","slug":"lunch"}],"author":{"email":"jam.serious@awesome.org","id":7,"username":"foodman","first_name":"Jam","last_name":"Serious","is_subscribed":false},"ingredients":[{"id":811,"name":"лаваш","measurement_unit":"по вкусу","amount":2},{"id":1915,"name":"фарш (баранина и говядина)","measurement_unit":"г","amount":340},{"id":1894,"name":"укроп свежий","measurement_unit":"г","amount":22}],"is_favorited":false,"is_in_shopping_cart":false,"name":"BrunchToGo","image":"http://127.0.0.1:8000/media/recipes/brunch.resized.jpg","text":"Cooking instructions go here with lots of humour and flavours.<br>The image is courtesy of <a href=\"https://www.freepik.com/free-photo/arabic-shaurma-with-sauce-wooden-board_5588054.htm#query=brunch&position=29&from_view=search&track=sph&uuid=b0943bd3-eaf4-4413-9e12-f2f21c423dfc\">azerbaijan_stockers</a> on Freepik","cooking_time":120}]}